{"data": [{"url": "photos/DSC01049.JPG", "description": "City View"},
            {"url": "photos/DSC01066.JPG", "description": "Ferris Wheel"},
            {"url": "photos/DSC02511.jpg", "description": "A building in the forbidden city with extra long text"},
            {"url": "photos/DSC03810.jpg", "description": "City View 2"},
            {"url": "photos/DSC05750.jpg", "description": "Sunset"}]

}